{
    "KPlugin": {
        "Category": "Appearance",
        "Description": "Visualize touch points",
        "Description[ar]": "تصور نقاط اللمس",
        "Description[az]": "Ekranda toxunan nöqtələri canlandırır",
        "Description[be]": "Візуалізацыя пунктаў дакранання",
        "Description[bg]": "Визуализиране на точките на допир",
        "Description[ca@valencia]": "Visualitza els punts de contacte",
        "Description[ca]": "Visualitza els punts de contacte",
        "Description[cs]": "Vizualizovat dotekové body",
        "Description[de]": "Berührungspunkte anzeigen",
        "Description[en_GB]": "Visualise touch points",
        "Description[eo]": "Vidigi tuŝpunktojn",
        "Description[es]": "Visualizar los puntos de contacto",
        "Description[et]": "Puutepunktide visualiseerimine",
        "Description[eu]": "Bistaratu ukimen puntuak",
        "Description[fi]": "Korosta kosketuspisteet",
        "Description[fr]": "Afficher les points tactiles",
        "Description[gl]": "Visualizar os puntos de toque.",
        "Description[he]": "המחשת נקודות מגע",
        "Description[hu]": "Vizualizálja az érintési pontokat",
        "Description[ia]": "Visualisa punctos de contacto",
        "Description[id]": "Memvisualkan titik sentuh",
        "Description[it]": "Visualizza i punti di tocco",
        "Description[ja]": "タッチしたポイントを視覚化します",
        "Description[ka]": "შეხების წერტილების ვიზუალიზაცია",
        "Description[ko]": "터치 지점 표시",
        "Description[nl]": "Aanraakpunten visualiseren",
        "Description[nn]": "Visualiser kontaktpunkt",
        "Description[pl]": "Uwidacznia punkty dotyku",
        "Description[pt]": "Visualizar os pontos de toque",
        "Description[pt_BR]": "Visualizar pontos de toque",
        "Description[ro]": "Vizualizează punctele de atingere",
        "Description[ru]": "Визуализация событий касания экрана",
        "Description[sk]": "Vizualizovať dotykové body",
        "Description[sl]": "Vizualizirajte točke dotika",
        "Description[sv]": "Åskådliggör beröringspunkter",
        "Description[ta]": "தொடப்படும் இடங்களை காட்டும்",
        "Description[tr]": "Dokunma noktalarını görselleştir",
        "Description[uk]": "Візуалізувати точки дотику",
        "Description[vi]": "Trực quan hoá các điểm chạm",
        "Description[x-test]": "xxVisualize touch pointsxx",
        "Description[zh_CN]": "高亮显示在触控屏幕上的触摸点",
        "Description[zh_TW]": "視覺化觸控點",
        "EnabledByDefault": false,
        "License": "GPL",
        "Name": "Touch Points",
        "Name[ar]": "نقاط اللمس",
        "Name[az]": "Toxunma nöqtələri",
        "Name[be]": "Пункты дакранання",
        "Name[bg]": "Допирни точки",
        "Name[ca@valencia]": "Punts de contacte",
        "Name[ca]": "Punts de contacte",
        "Name[cs]": "Dotekové body",
        "Name[de]": "Berührungspunkte",
        "Name[en_GB]": "Touch Points",
        "Name[eo]": "Tuŝpunktoj",
        "Name[es]": "Puntos de contacto",
        "Name[et]": "Puutepunktid",
        "Name[eu]": "Ukimen puntuak",
        "Name[fi]": "Kosketuspisteet",
        "Name[fr]": "Points tactiles",
        "Name[gl]": "Puntos de toque",
        "Name[he]": "נקודות מגע",
        "Name[hu]": "Érintési pontok",
        "Name[ia]": "Punctos de contacto",
        "Name[id]": "Titik Sentuh",
        "Name[it]": "Punti di tocco",
        "Name[ja]": "タッチポイント",
        "Name[ka]": "შეხების წერტილები",
        "Name[ko]": "터치 지점",
        "Name[nl]": "Aanraakpunten",
        "Name[nn]": "Kontaktpunkt",
        "Name[pl]": "Punkty dotyku",
        "Name[pt]": "Pontos de Toque",
        "Name[pt_BR]": "Pontos de toque",
        "Name[ro]": "Puncte de atingere",
        "Name[ru]": "Точки прикосновения",
        "Name[sk]": "Dotykové body",
        "Name[sl]": "Točke dotika",
        "Name[sv]": "Beröringspunkter",
        "Name[ta]": "தொடும் இடங்கள்",
        "Name[tr]": "Dokunma Noktaları",
        "Name[uk]": "Точки дотику",
        "Name[vi]": "Điểm chạm",
        "Name[x-test]": "xxTouch Pointsxx",
        "Name[zh_CN]": "触摸点高亮",
        "Name[zh_TW]": "觸控點"
    }
}
