{
    "KPackageStructure": "KWin/Script",
    "KPlugin": {
        "Authors": [
            {
                "Email": "mgraesslin@kde.org",
                "Name": "Martin Gräßlin",
                "Name[ar]": "مارتن جراجلين",
                "Name[be]": "Martin Gräßlin",
                "Name[bg]": "Martin Gräßlin",
                "Name[ca@valencia]": "Martin Gräßlin",
                "Name[ca]": "Martin Gräßlin",
                "Name[cs]": "Martin Gräßlin",
                "Name[de]": "Martin Gräßlin",
                "Name[en_GB]": "Martin Gräßlin",
                "Name[eo]": "Martin Gräßlin",
                "Name[es]": "Martin Gräßlin",
                "Name[et]": "Martin Gräßlin",
                "Name[eu]": "Martin Gräßlin",
                "Name[fi]": "Martin Gräßlin",
                "Name[fr]": "Martin Gräßlin",
                "Name[gl]": "Martin Gräßlin.",
                "Name[he]": "מרטין גרייסלין",
                "Name[ia]": "Martin Gräßlin",
                "Name[it]": "Martin Gräßlin",
                "Name[ja]": "Martin Gräßlin",
                "Name[ka]": "მარტინ გრესსლინი",
                "Name[ko]": "Martin Gräßlin",
                "Name[nl]": "Martin Gräßlin",
                "Name[nn]": "Martin Gräßlin",
                "Name[pl]": "Martin Gräßlin",
                "Name[pt]": "Martin Gräßlin",
                "Name[ru]": "Martin Gräßlin",
                "Name[sk]": "Martin Gräßlin",
                "Name[sl]": "Martin Gräßlin",
                "Name[ta]": "மார்ட்டின் கிராஸ்லின்",
                "Name[tr]": "Martin Gräßlin",
                "Name[uk]": "Martin Gräßlin",
                "Name[vi]": "Martin Gräßlin",
                "Name[x-test]": "xxMartin Gräßlinxx",
                "Name[zh_CN]": "Martin Gräßlin",
                "Name[zh_TW]": "Martin Gräßlin"
            }
        ],
        "Description": "An on screen display indicating the desktop change",
        "Description[ar]": "عرض تنبيه على الشاشة يشير إلى تغيير سطح المكتب",
        "Description[be]": "На экране паказваецца змена працоўнага стала",
        "Description[bg]": "Екранен надпис, показващ промяната на работния плот",
        "Description[ca@valencia]": "Un missatge a la pantalla indicant el canvi d'escriptori",
        "Description[ca]": "Un missatge a la pantalla indicant el canvi d'escriptori",
        "Description[cs]": "Displej označující změnu plochy",
        "Description[de]": "Ein On-Screen-Display (OSD), das den Wechsel der Arbeitsfläche anzeigt",
        "Description[en_GB]": "An on screen display indicating the desktop change",
        "Description[eo]": "Ekrana ekrano indikanta la surtablan ŝanĝon",
        "Description[es]": "Un visor sobre la pantalla para indicar el cambio de escritorio",
        "Description[et]": "Töölaua muutumist näitab ekraanikuva",
        "Description[eu]": "Mahaigain-aldaketa adierazten duen pantailako azalpena",
        "Description[fi]": "Työpöytävaihdon osoittava ruutunäyttö",
        "Description[fr]": "Une incrustation vidéo indiquant un changement de bureau",
        "Description[gl]": "Un visor na pantalla que indica o cambio de escritorio.",
        "Description[he]": "תצוגה צפה על המסך שמציינת ששולחן העבודה התחלף",
        "Description[ia]": "Un monstrator sur le schermo indicante le modification de scriptorio",
        "Description[it]": "Una visualizzazione sullo schermo che indica il cambio di desktop",
        "Description[ja]": "デスクトップの変更をオンスクリーンディスプレイで通知します",
        "Description[ka]": "სამუშაო მაგიდის ცვლილების ეკრანზე ჩვენება",
        "Description[ko]": "바탕 화면 변경 상황을 표시하는 OSD",
        "Description[nl]": "Een on screen display (OSD) die de wijziging van het bureaublad aangeeft",
        "Description[nn]": "Bruk skjermmelding ved skrivebordbyte",
        "Description[pl]": "Wyświetlacz na ekranie wskazujący zmianę pulpitu",
        "Description[pt]": "Uma visualização no ecrã que indica a mudança de ecrã",
        "Description[ru]": "Экранные уведомления об изменении рабочего стола",
        "Description[sk]": "Zobrazenie na obrazovke indikujúce zmenu pracovnej plochy",
        "Description[sl]": "Prikaz na zasloni, ki nakazuje spremembo namizja",
        "Description[ta]": "பணிமேடையை மாற்றும்போது காட்டப்படுவது",
        "Description[tr]": "Masaüstü değişikliğini belirten bir ekran üzeri görüntüsü",
        "Description[uk]": "Екранна панель спостереження за зміною стільниць",
        "Description[vi]": "Một ô hiện nổi để biểu thị thay đổi của bàn làm việc",
        "Description[x-test]": "xxAn on screen display indicating the desktop changexx",
        "Description[zh_CN]": "能够突出显示桌面内容变化的辅助显示功能",
        "Description[zh_TW]": "表示桌面變更用的螢幕顯示（OSD）",
        "Icon": "preferences-system-windows-script-test",
        "Id": "desktopchangeosd",
        "License": "GPL",
        "Name": "Desktop Change OSD",
        "Name[ar]": "تنبيه على الشاشة حين تغير سطح المكتب",
        "Name[be]": "Паказ змены працоўнага стала",
        "Name[bg]": "Екранен надпис за промяна на работния плот",
        "Name[ca@valencia]": "OSD al canvi d'escriptori",
        "Name[ca]": "OSD al canvi d'escriptori",
        "Name[cs]": "OSD změny plochy",
        "Name[de]": "Arbeitsflächenwechsel-OSD",
        "Name[en_GB]": "Desktop Change OSD",
        "Name[eo]": "Labortablo Ŝanĝi OSD",
        "Name[es]": "OSD de cambio de escritorio",
        "Name[et]": "Töölaua muutmise ekraaniesitus",
        "Name[eu]": "Mahaigain-aldaketari buruzko OSD",
        "Name[fi]": "Työpöytävaihdon ruutunäyttö",
        "Name[fr]": "Incrustation vidéo pour le changement de bureau",
        "Name[gl]": "OSD de cambio de escritorio",
        "Name[he]": "חיווי צף על החלפת שולחן עבודה",
        "Name[ia]": "Modifica OSD de scriptorio",
        "Name[it]": "OSD di cambio desktop",
        "Name[ja]": "デスクトップの変更 OSD",
        "Name[ka]": "OSD სამუშაო მაგიდის ცვლილებისას",
        "Name[ko]": "바탕 화면 변경 OSD",
        "Name[nl]": "OSD voor bureaubladwijziging",
        "Name[nn]": "Skjermmelding ved skrivebordsbyte",
        "Name[pl]": "OSD zmiany pulpitu",
        "Name[pt]": "OSD de Mudança do Ecrã",
        "Name[ru]": "Экранные уведомления об изменении рабочего стола",
        "Name[sk]": "OSD zmeny plochy",
        "Name[sl]": "Sprememba namizja OSD",
        "Name[ta]": "பணிமேடை மாற்ற காட்டி",
        "Name[tr]": "OSD Masaüstü Değişimi",
        "Name[uk]": "Панель зміни стільниць",
        "Name[vi]": "Ô hiện nổi thay đổi bàn làm việc",
        "Name[x-test]": "xxDesktop Change OSDxx",
        "Name[zh_CN]": "桌面变化突出显示",
        "Name[zh_TW]": "桌面變更時的螢幕顯示"
    },
    "X-Plasma-API": "declarativescript"
}
