{
    "Categories": "Qt;KDE;",
    "KPlugin": {
        "BugReportUrl": "https://bugs.kde.org/enter_bug.cgi?product=systemsettings&component=kcm_kwinxwayland",
        "Description": "Select which keys will be globally available to legacy X11 apps",
        "Description[ar]": "حدد أي المفاتيح التي ستكون متوفرة لتطبيقات اكس 11 القديمة",
        "Description[be]": "Абярыце клавішы, якія будуць глабальна даступныя для састарэлых праграм X11",
        "Description[bg]": "Изберете, кои клавиши да бъдат достъпни на глобално ниво за X11 приложения с минали версии",
        "Description[ca@valencia]": "Seleccioneu les tecles que estaran disponibles globalment a les aplicacions X11 antigues",
        "Description[ca]": "Seleccioneu les tecles que seran disponibles globalment a les aplicacions X11 antigues",
        "Description[cs]": "Vyberte, které klávesy budou globálně dostupné pro staré aplikace X11",
        "Description[de]": "Wählen Sie die klassischen X11-Anwendungen zur Verfügung stehenden Tasten",
        "Description[en_GB]": "Select which keys will be globally available to legacy X11 apps",
        "Description[eo]": "Elektu kiuj ŝlosiloj estos ĉie haveblaj al heredaj X11-aplikoj",
        "Description[es]": "Seleccionar las teclas que estarán disponibles globalmente para las aplicaciones X11 heredadas",
        "Description[eu]": "Hautatu ze tekla egongo diren X11 ondare aplikazioetarako globalki erabilgarri",
        "Description[fi]": "Valitsee, mitkä näppäimet ovat yleisesti vanhojen X11-sovellusten käytettävissä",
        "Description[fr]": "Sélectionnez quelles touches doivent être totalement disponibles pour les applications anciennes sous X11",
        "Description[gl]": "Seleccionar que teclas estarán dispoñíbeis globalmente para aplicacións antigas de X11.",
        "Description[he]": "נא לבחור אילו מקשים יהיו זמינים באופן כוללני ליישומי X11 מיושנים",
        "Description[ia]": "Selige qual claves essera disponibile globalmente a apps de X11 legacy (hereditage)",
        "Description[it]": "Seleziona quali tasti saranno disponibili a livello globale per le applicazioni X11 originali",
        "Description[ja]": "レガシーな X11 アプリケーションがグローバルに利用できるキーを選択",
        "Description[ka]": "აირჩიეთ, რომელი ღილაკები იქნება გლობალურად ხელმისაწვდომი მოძველებული X11 აპებისთვის",
        "Description[ko]": "레거시 X11 앱에 전역적으로 전달할 키 선택",
        "Description[nl]": "Selecteer welke toetsen globaal beschikbaar zijn aan verouderde X11 apps",
        "Description[nn]": "Vel kva tastetrykk som skal vera globalt tilgjengelege for eldre X11-program",
        "Description[pl]": "Wybierz klawisze, które będą globalnie dostępne dla starych aplikacji X11",
        "Description[pt]": "Seleccione as teclas que estarão disponíveis globalmente para as aplicações antigas em X11",
        "Description[ru]": "Поддержка передачи нажатий клавиш в устаревшие приложения X11",
        "Description[sk]": "Výber klávesov, ktoré budú globálne dostupné pre staršie aplikácie X11",
        "Description[sl]": "Izberite tipke, ki bodo globalno na voljo za tradicionalne aplikacije X11",
        "Description[ta]": "பழைய X11 செயலிகள் எவ்விசைகளை எப்போது வேண்டுமானாலும் கண்டறிய முடியுமென்பதை அமையுங்கள்",
        "Description[tr]": "Eski X11 uygulamalarına hangi düğmelerin global olarak kullanılabilir olacağını seç",
        "Description[uk]": "Вибір клавіш, які будуть доступні на загальному рівні програмам X11",
        "Description[vi]": "Chọn các phím khả dụng toàn cục cho các ứng dụng X11 đời cũ",
        "Description[x-test]": "xxSelect which keys will be globally available to legacy X11 appsxx",
        "Description[zh_CN]": "选择对旧式 X11 应用程序全局可用的按键",
        "Description[zh_TW]": "選擇舊式 X11 應用程式可以全域使用的按鍵",
        "Icon": "xorg",
        "Name": "Legacy X11 App Support",
        "Name[ar]": "دعم تطبيقات اكس11 القديمة",
        "Name[be]": "Падтрымка састарэлых праграм X11",
        "Name[bg]": "Поддръжка на минали версии  X11 приложения",
        "Name[ca@valencia]": "Implementació de les aplicacions X11 antigues",
        "Name[ca]": "Implementació de les aplicacions X11 antigues",
        "Name[cs]": "Podpora starých aplikací X11",
        "Name[de]": "Unterstützung für klassische X11-Anwendungen",
        "Name[en_GB]": "Legacy X11 App Support",
        "Name[eo]": "Legacy X11 App Subteno",
        "Name[es]": "Compatibilidad de aplicaciones X11 heredadas",
        "Name[eu]": "X11 ondare aplikazioen euskarria",
        "Name[fi]": "Vanhojen X11-sovellusten tuki",
        "Name[fr]": "Prise en charge des applications anciennes sous X11",
        "Name[gl]": "Compatibilidade con aplicacións antigas de X11",
        "Name[he]": "תמיכה ביישומי X11 מיושנים",
        "Name[ia]": "Legacy X11 App Support (Supporto de App de X11 de Hereditage)",
        "Name[it]": "Supporto per le applicazioni X11 originali",
        "Name[ja]": "レガシー X11 アプリケーションのサポート",
        "Name[ka]": "მოძველებული X11 პროგრამების მხარდაჭერა",
        "Name[ko]": "레거시 X11 앱 지원",
        "Name[nl]": "Verouderde ondersteuning voor X11 App",
        "Name[nn]": "Støtte for eldre X11-program",
        "Name[pl]": "Wsparcie starych aplikacji X11",
        "Name[pt]": "Suporte para Aplicações de X11 Antigas",
        "Name[ru]": "Поддержка устаревших приложений X11",
        "Name[sk]": "Podpora starších aplikácií X11",
        "Name[sl]": "Podpora tradicionalnim aplikacijam X11",
        "Name[ta]": "பழைய X11 செயலிகளுக்கான ஆதரவு",
        "Name[tr]": "Eski X11 Uygulamaları Desteği",
        "Name[uk]": "Підтримка застарілих програм X11",
        "Name[vi]": "Hỗ trợ ứng dụng X11 đời cũ",
        "Name[x-test]": "xxLegacy X11 App Supportxx",
        "Name[zh_CN]": "旧式 X11 应用程序支持",
        "Name[zh_TW]": "舊式 X11 應用程式支援"
    },
    "X-KDE-Keywords": "xwayland,global,keys,forward",
    "X-KDE-OnlyShowOnQtPlatforms": [
        "wayland"
    ],
    "X-KDE-System-Settings-Parent-Category": "applications-permissions",
    "X-KDE-Weight": 20
}
