{
    "KPlugin": {
        "Category": "Accessibility",
        "Description": "Magnify the section of the screen that is near the mouse cursor",
        "Description[ar]": "كبّر قسم الشاشة القريب من مؤشّر الفأرة",
        "Description[az]": "Kursorun altındakı ekran hissəsini böyüdücü şüşədə göstərir",
        "Description[be]": "Павялічэнне часткі экрана побач з курсорам мышы",
        "Description[bg]": "Увеличаване на секцията на екрана, която е близо до курсора на мишката",
        "Description[ca@valencia]": "Amplia la secció de la pantalla que està prop del cursor del ratolí",
        "Description[ca]": "Amplia la secció de la pantalla que està prop del cursor del ratolí",
        "Description[cs]": "Zvětší část obrazovky, která je poblíž ukazatele myši",
        "Description[de]": "Vergrößert den Arbeitsflächenbereich unter dem Mauszeiger",
        "Description[en_GB]": "Magnify the section of the screen that is near the mouse cursor",
        "Description[eo]": "Pligrandigu la sekcion de la ekrano, kiu estas proksime de la muskursoro",
        "Description[es]": "Ampliar la sección de la pantalla que está cerca del cursor del ratón",
        "Description[et]": "Suurendab hiirekursori ümbruses asuvat ekraaniosa",
        "Description[eu]": "Handiagotu sagu-kurtsorearen ondoko pantailaren zatia",
        "Description[fi]": "Suurenna hiiriosoittimen läheinen näytön alue",
        "Description[fr]": "Agrandir la partie de l'écran proche du pointeur de la souris",
        "Description[gl]": "Amplía a parte da pantalla que está preto do rato.",
        "Description[he]": "הגדלת החלק במסך שקרוב לסמן העכבר",
        "Description[hu]": "Felnagyítja az egérmutató alatti területet",
        "Description[ia]": "Aggrandi le section del schermo que es vicin al cursor del mus",
        "Description[id]": "Membesarkan bagian layar yang dekat kursor mouse",
        "Description[it]": "Ingrandisce la sezione dello schermo nei pressi del puntatore del mouse",
        "Description[ja]": "スクリーンのマウスカーソル近くのセクションを拡大します",
        "Description[ka]": "თაგუნას კურსორის ახლომდებარე ეკრანის მონაკვეთის გადიდება",
        "Description[ko]": "마우스 커서 근처에 있는 화면을 확대합니다",
        "Description[nl]": "Vergroot het deel van het scherm dat zich onder de muis bevindt",
        "Description[nn]": "Forstørr delen av skjermen som er under musepeikaren",
        "Description[pl]": "Powiększa obszar ekranu znajdujący się pod wskaźnikiem myszy",
        "Description[pt]": "Amplia a secção do ecrã próxima do cursor do rato",
        "Description[pt_BR]": "Amplia a seção da tela próxima ao ponteiro do mouse",
        "Description[ro]": "Mărește secțiunea ecranului de lângă cursorul mausului",
        "Description[ru]": "Показ части экрана у курсора мыши под увеличительным стеклом",
        "Description[sk]": "Zväčší časť obrazovky, ktorá je okolo kurzora myši",
        "Description[sl]": "Povečajte del zaslona, ki je blizu miškinega kazalca",
        "Description[sv]": "Förstorar den del av skärmen som är nära muspekaren",
        "Description[ta]": "சுட்டிக்குறிக்கு அருகிலுள்ள திரையின் பகுதியை பெரிதாக்கும்",
        "Description[tr]": "Fare imlecinin yakınındaki ekran bölümünü büyüt",
        "Description[uk]": "Збільшення частини екрана поруч з вказівником миші",
        "Description[vi]": "Phóng đại khu vực màn hình gần với con trỏ chuột",
        "Description[x-test]": "xxMagnify the section of the screen that is near the mouse cursorxx",
        "Description[zh_CN]": "放大显示鼠标光标附近的一块方形区域的屏幕内容",
        "Description[zh_TW]": "放大在滑鼠游標附近的部分",
        "EnabledByDefault": false,
        "License": "GPL",
        "Name": "Magnifier",
        "Name[ar]": "المكبّر",
        "Name[az]": "Böyüdücü",
        "Name[be]": "Лупа",
        "Name[bg]": "Лупа",
        "Name[ca@valencia]": "Lupa",
        "Name[ca]": "Lupa",
        "Name[cs]": "Lupa",
        "Name[de]": "Lupe",
        "Name[en_GB]": "Magnifier",
        "Name[eo]": "Lupeo",
        "Name[es]": "Lupa",
        "Name[et]": "Suurendaja",
        "Name[eu]": "Lupa",
        "Name[fi]": "Suurennuslasi",
        "Name[fr]": "Loupe",
        "Name[gl]": "Lupa",
        "Name[he]": "זכוכית מגדלת",
        "Name[hu]": "Nagyító",
        "Name[ia]": "Aggranditor",
        "Name[id]": "Kaca Pembesar",
        "Name[it]": "Lente d'ingrandimento",
        "Name[ja]": "拡大鏡",
        "Name[ka]": "გამადიდებელი",
        "Name[ko]": "돋보기",
        "Name[nl]": "Vergrootglas",
        "Name[nn]": "Forstørr skjermdel",
        "Name[pl]": "Powiększenie",
        "Name[pt]": "Lupa",
        "Name[pt_BR]": "Lente de aumento",
        "Name[ro]": "Lupă",
        "Name[ru]": "Лупа",
        "Name[sk]": "Lupa",
        "Name[sl]": "Povečevalo",
        "Name[sv]": "Förstoringsglas",
        "Name[ta]": "உருப்பெருக்கி",
        "Name[tr]": "Büyüteç",
        "Name[uk]": "Лупа",
        "Name[vi]": "Trình phóng đại",
        "Name[x-test]": "xxMagnifierxx",
        "Name[zh_CN]": "放大镜 (方形)",
        "Name[zh_TW]": "放大鏡"
    },
    "X-KDE-ConfigModule": "kwin_magnifier_config",
    "org.kde.kwin.effect": {
        "exclusiveGroup": "magnifiers",
        "video": "https://files.kde.org/plasma/kwin/effect-videos/magnifier.ogv"
    }
}
