{
    "KPackageStructure": "KWin/Effect",
    "KPlugin": {
        "Authors": [
            {
                "Email": "davidedmundson@kde.org",
                "Name": "David Edmundson",
                "Name[ar]": "ديفيد إدموندسون",
                "Name[be]": "David Edmundson",
                "Name[bg]": "David Edmundson",
                "Name[ca@valencia]": "David Edmundson",
                "Name[ca]": "David Edmundson",
                "Name[cs]": "David Edmundson",
                "Name[de]": "David Edmundson",
                "Name[en_GB]": "David Edmundson",
                "Name[eo]": "David Edmundson",
                "Name[es]": "David Edmundson",
                "Name[et]": "David Edmundson",
                "Name[eu]": "David Edmundson",
                "Name[fi]": "David Edmundson",
                "Name[fr]": "David Edmundson",
                "Name[gl]": "David Edmundson",
                "Name[he]": "דיויד אדמונדסון",
                "Name[ia]": "David Edmundson",
                "Name[it]": "David Edmundson",
                "Name[ja]": "David Edmundson",
                "Name[ka]": "დავიდ ედმუნდსონი",
                "Name[ko]": "David Edmundson",
                "Name[nl]": "David Edmundson",
                "Name[nn]": "David Edmundson",
                "Name[pl]": "David Edmundson",
                "Name[pt]": "David Edmundson",
                "Name[ru]": "David Edmundson",
                "Name[sk]": "David Edmundson",
                "Name[sl]": "David Edmundson",
                "Name[ta]": "டேவிட் எட்மண்டுஸன்",
                "Name[tr]": "David Edmundson",
                "Name[uk]": "David Edmundson",
                "Name[vi]": "David Edmundson",
                "Name[x-test]": "xxDavid Edmundsonxx",
                "Name[zh_CN]": "David Edmundson",
                "Name[zh_TW]": "David Edmundson"
            }
        ],
        "Category": "Appearance",
        "Description": "Keep the desktop background alive during logout until the end",
        "Description[ar]": "حافظ على خلفية سطح المكتب حتى نهاية عملية الخروج",
        "Description[be]": "Захаванне фону працоўнага стала падчас выхаду",
        "Description[bg]": "Показване на фона на работния плот до края на излизането от сесия",
        "Description[ca@valencia]": "Manté viu el fons de l'escriptori durant l'eixida de la sessió fins al final",
        "Description[ca]": "Manté viu el fons de l'escriptori durant la sortida de la sessió fins al final",
        "Description[de]": "Beim Abmelden den Hintergrund der Arbeitsfläche bis zum Schluss behalten",
        "Description[en_GB]": "Keep the desktop background alive during logout until the end",
        "Description[eo]": "Konservu la labortablan fonon dum elsaluto ĝis la fino",
        "Description[es]": "Mantener vivo el fondo del escritorio hasta el final durante el cierre de sesión",
        "Description[et]": "Töölaua taust hoitakse väljalogimisel alles kuni lõpuni",
        "Description[eu]": "Eutsi mahaigaineko atzeko-planoa bizirik saio-ixten bukaera arte",
        "Description[fi]": "Pitää ulos kirjauduttaessa työpöydän elävänä loppuun asti",
        "Description[fr]": "Conserver l'arrière-plan du bureau actif jusqu'à la fin de la déconnexion",
        "Description[gl]": "Manter vivo o fondo de escritorio durante a saída ata o final.",
        "Description[he]": "משאיר את טפט שולחן העבודה חי במהלך יציאה עד הסוף",
        "Description[ia]": "Mantene le fundo de criptorio vive durante le clausura de session usque le fin",
        "Description[it]": "Mantieni attivo lo sfondo del desktop durante la chiusura della sessione fino alla fine",
        "Description[ja]": "ログアウト時最後までデスクトップの背景を表示し続けます",
        "Description[ka]": "სამუშაო მაგიდის ფონური სურათის ცოცხლად დატოვება გასვლისას, ბოლო წამამდე",
        "Description[ko]": "로그아웃이 끝날 때까지 데스크톱 배경 그림 유지",
        "Description[nl]": "De achtergrond van het bureaublad tot het einde levend houden gedurende afmelden",
        "Description[nn]": "Hald skrivebordsbakgrunnen i live heilt til utlogginga er fullført",
        "Description[pl]": "Utrzymuj tło pulpitu podczas wylogowania, aż do końca",
        "Description[pt]": "Manter activo o fundo do ecrã durante o encerramento até ao fim",
        "Description[ru]": "Сохранение фона рабочего стола до окончания завершения сеанса",
        "Description[sk]": "Ponechanie pozadia pracovnej plochy počas odhlásenia až do konca",
        "Description[sl]": "Ohranite ozadje namizja dejavno med odjavo vse do konca",
        "Description[ta]": "வெளியேறும்போது கடைசிவரை பணிமேடையின் பின்புல படத்தை வைத்திருக்கும்",
        "Description[tr]": "Oturum kapatma sırasında masaüstü arka planını sonuna kadar canlı tut",
        "Description[uk]": "Не вимикати тло стільниці до кінця процедури виходу із облікового запису",
        "Description[vi]": "Giữ nền bàn làm việc hiện cho đến cuối quá trình đăng xuất",
        "Description[x-test]": "xxKeep the desktop background alive during logout until the endxx",
        "Description[zh_CN]": "注销时继续显示桌面背景，直到完全退出会话",
        "Description[zh_TW]": "直到登出完成前皆保留桌面背景圖片",
        "EnabledByDefault": true,
        "Icon": "preferences-system-windows-effect-logout",
        "Id": "sessionquit",
        "License": "GPL",
        "Name": "Session Quit",
        "Name[ar]": "انتهاء الجلسة",
        "Name[be]": "Выхад з сеанса",
        "Name[bg]": "Изход от сесията",
        "Name[ca@valencia]": "Eixida de la sessió",
        "Name[ca]": "Sortida de la sessió",
        "Name[cs]": "Sezení bylo ukončeno",
        "Name[de]": "Sitzungsende",
        "Name[en_GB]": "Session Quit",
        "Name[eo]": "Session Quit",
        "Name[es]": "Salir de la sesión",
        "Name[et]": "Seansist väljumine",
        "Name[eu]": "Saiotik irtetea",
        "Name[fi]": "Istunnon lopetus",
        "Name[fr]": "Fermeture de la session",
        "Name[gl]": "Saída de sesión",
        "Name[he]": "יציאה מהפעלה",
        "Name[ia]": "Abandona session",
        "Name[it]": "Chiusura sessione",
        "Name[ja]": "セッション退出",
        "Name[ka]": "სესიიდან გასვლა",
        "Name[ko]": "세션 종료",
        "Name[nl]": "Afsluiten van sessie",
        "Name[nn]": "Avslutt økt",
        "Name[pl]": "Opuszczenie sesji",
        "Name[pt]": "Sair da Sessão",
        "Name[pt_BR]": "Saída da sessão",
        "Name[ru]": "Завершение сеанса",
        "Name[sk]": "Ukončenie sedenia",
        "Name[sl]": "Zaključek seje",
        "Name[ta]": "அமர்வு வெளியேற்றம்",
        "Name[tr]": "Oturum Çıkışı",
        "Name[uk]": "Вихід з сеансу",
        "Name[vi]": "Thoát phiên",
        "Name[x-test]": "xxSession Quitxx",
        "Name[zh_CN]": "会话退出优化",
        "Name[zh_TW]": "離開工作階段"
    },
    "X-KDE-Ordering": 40,
    "X-KWin-Internal": "true",
    "X-Plasma-API": "javascript"
}
